Chapter 4 Commonly Used Tables | Tables in Clinical Trials with R
…
  dat <- bind_rows(subj_count, subj_censored, subj_censored_detail, hr_dat, pval_dat, tfe_dat) |> 
    as_tibble() |>
    ## factor for easy ordering ----
    mutate(
      description = factor(description, levels = c("SAE", "CENSOR_EVENTS", "HAZARD_RATIO", "TTF_SAE")),
      subdescription = factor(subdescription,
      levels = c("ALL", cnsdtdsc_levels, "NUSUBJID", "MEDIAN", "EST", "CONFINT", "PVALUE", "RANGE")))

  dat
}

dat <- prepare_tte_df(adtte, cph, surv_tbl)
dat

# A tibble: 30 × 12
   TRT01A         n records    pct descr…¹ subde…²   LCL   UCL     y   min   max
   <chr>      <dbl>   <dbl>  <dbl> <fct>   <fct>   <dbl> <dbl> <dbl> <dbl> <dbl>
 1 A: Drug X     89     134 0.664  SAE     ALL        NA    NA    NA    NA    NA
 2 B: Placebo   123     134 0.918  SAE     ALL        NA    NA    NA    NA    NA
 3 C: Combin…    88     132 0.667  SAE     ALL        NA    NA    NA    NA    NA
 4 A: Drug X     45     134 0.336  CENSOR… ALL        NA    NA    NA    NA    NA
 5 B: Placebo    11     134 0.0821 CENSOR… ALL        NA    NA    NA    NA    NA
 6 C: Combin…    44     132 0.333  CENSOR… ALL        NA    NA    NA    NA    NA
 7 A: Drug X     10     134 0.0746 CENSOR… Clinic…    NA    NA    NA    NA    NA
 8 A: Drug X     13     134 0.0970 CENSOR… Comple…    NA    NA    NA    NA    NA
 9 A: Drug X     22     134 0.164  CENSOR… End of…    NA    NA    NA    NA    NA
10 B: Placebo     4     134 0.0299 CENSOR… Clinic…    NA    NA    NA    NA    NA
# … with 20 more rows, 1 more variable: is_censored <lgl>, and abbreviated
#   variable names ¹​description, ²​subdescription
…
dat <- bind_rows(
  part_completed, 
  part_discontinued, 
  part_death) |> 
  inner_join(part_header, by = "TRT01A") |> 
  mutate(percent = n / n_part, n_part = NULL)
dat

# A tibble: 44 × 5
   TRT01A         EOSSTT       DCSREAS                             n percent
   <fct>          <chr>        <chr>                           <int>   <dbl>
 1 A: Drug X      COMPLETED    ""                                 68 0.507  
 2 B: Placebo     COMPLETED    ""                                 66 0.493  
 3 C: Combination COMPLETED    ""                                 73 0.553  
 4 A: Drug X      DISCONTINUED "ADVERSE EVENT"                     3 0.0224 
 5 A: Drug X      DISCONTINUED "DEATH"                            25 0.187  
 6 A: Drug X      DISCONTINUED "LACK OF EFFICACY"                  2 0.0149 
 7 A: Drug X      DISCONTINUED "PHYSICIAN DECISION"                2 0.0149 
 8 A: Drug X      DISCONTINUED "PROTOCOL VIOLATION"                5 0.0373 
 9 A: Drug X      DISCONTINUED "WITHDRAWAL BY PARENT/GUARDIAN"     4 0.0299 
10 A: Drug X      DISCONTINUED "WITHDRAWAL BY SUBJECT"             1 0.00746
# … with 34 more rows
…
